com\utility\ChartUtility$1.class
com\utility\ExcelUtility.class
com\dao\upload\RealTimeDataDao$1.class
com\dao\query\QueryByTagCodeDao.class
com\controller\upload\UploadRealTimeController.class
com\utility\ServerNotification.class
com\controller\upload\UploadWifiDataController.class
com\security\SecurityController.class
com\controller\query\GetChartController.class
com\dao\tag\TagDao.class
com\dao\upload\UploadBatchWifiDataDao.class
com\utility\DataSizeLimitUtility.class
com\dao\upload\UploadBatchDataDao.class
com\utility\RealTimeDataPool.class
com\dao\query\QueryRealTimeDao.class
com\controller\query\GetExcelFileController.class
com\dao\upload\RealTimeDataDao$2.class
com\controller\upload\UploadBatchDataController.class
com\bean\ConnoDataSource.class
com\controller\upload\UploadBatchWifiDataController.class
com\utility\ExcelUtility$1.class
com\controller\query\DeleteRealTimeController.class
com\dao\upload\RealTimeDataDao.class
com\dao\tag\TagCodeDao.class
com\bean\SysListener.class
com\test\mainForTest.class
com\utility\RealTimeDataPool$1.class
com\controller\query\QueryByTagCodeController.class
com\utility\ChartUtility.class
com\controller\query\QueryRealTimeController.class
